3c051000
24a53d10
3c041008
2484f188
3c1c1000
279c3d0c
3c1d2000
27bdfffc
aca00000
00a4182a
24a50004
1460fffc
00000000
0c00041f
00000000
3c1ae000
af400000
1000ffff
00000000
00000000
00000000
00000000
00000000
00000000
00000000
00000000
00000000
00000000
00000000
00000000
00000000
00000000
00000000
00000000
00000000
00000000
00000000
00000000
00000000
00000000
00000000
00000000
00000000
00000000
00000000
00000000
00000000
00000000
00000000
00000000
00000000
00000000
00000000
00000000
00000000
00000000
00000000
00000000
00000000
00000000
00000000
00000000
00000000
00000000
23bdff98
afa10010
afa20014
afa30018
afa4001c
afa50020
afa60024
afa70028
afa8002c
afa90030
afaa0034
afab0038
afac003c
afad0040
afae0044
afaf0048
afb8004c
afb90050
afbf0054
401a7000
235afffc
afba0058
0000d810
afbb005c
0000d812
afbb0060
3c052000
8ca40020
8ca60010
00862024
0c0001ad
27a50000
8fa10010
8fa20014
8fa30018
8fa4001c
8fa50020
8fa60024
8fa70028
8fa8002c
8fa90030
8faa0034
8fab0038
8fac003c
8fad0040
8fae0044
8faf0048
8fb8004c
8fb90050
8fbf0054
8fba0058
8fbb005c
03600011
8fbb0060
03600013
23bd0068
341b0001
03400008
409b6000
40026000
40846000
03e00008
40846000
3c051000
24a5022c
8ca60000
ac06003c
8ca60004
ac060040
8ca60008
ac060044
8ca6000c
ac060048
03e00008
00000000
3c1a1000
275a0100
03400008
00000000
ac900000
ac910004
ac920008
ac93000c
ac940010
ac950014
ac960018
ac97001c
ac9e0020
ac9c0024
ac9d0028
ac9f002c
03e00008
34020000
8c900000
8c910004
8c920008
8c93000c
8c940010
8c950014
8c960018
8c97001c
8c9e0020
8c9c0024
8c9d0028
8c9f002c
341b0001
409b6000
03e00008
34a20000
3c022000
ac4400d0
03e00008
00000000
3c022000
8c420060
27bdfff0
3c03017d
afa20008
24637840
afa00000
3c022000
afa00004
080000cc
240561a8
8fa8000c
8fa70008
8fa60004
00000000
01063021
00c33021
00c73023
afa60004
8fa6000c
00000000
afa60008
8fa60004
00000000
2cc661a8
10c0001e
00000000
8fa60000
00000000
00c4302b
10c00029
00000000
8c460060
00000000
afa6000c
8fa7000c
8fa60008
00000000
00e6302b
14c0ffe3
00000000
8fa6000c
8fa70008
8fa80004
00000000
01063021
00c73023
afa60004
8fa6000c
00000000
afa60008
8fa60004
00000000
2cc661a8
14c0ffe4
00000000
8fa70004
8fa60000
00e5001b
00004012
01063021
afa60000
8fa60004
00000000
00c5001b
00003010
afa60004
8fa60000
00000000
00c4302b
14c0ffd9
00000000
03e00008
27bd0010
3c022000
3c03a5a5
8c4400e0
3463a5a5
14830006
3c03017d
24637840
ac4300a0
3c030004
ac4300b0
3c022000
ac400010
03e00008
00000000
3c041000
27bdffe8
afbf0014
0c00021d
24843464
3c041000
3c050007
8fbf0014
24844f9c
34a5a120
0800054a
27bd0018
3c041000
0800021d
24843478
27bdffe8
3c041000
afb00010
2484348c
afbf0014
0c00021d
3c101000
26052ae4
0c00019f
24040008
26052ae4
0c00019f
24040004
3c022000
8c430010
8fbf0014
34630008
8fb00010
ac430010
03e00008
27bd0018
3c041000
0800021d
248434a0
3c041000
27bdffe8
afbf0014
0c00021d
248434b4
8fbf0014
0800061d
27bd0018
3c041000
0800021d
248434cc
3084ffff
00041880
00041100
00621021
00442023
3c021000
000420c0
24423dcc
00822021
03e00008
ac850060
3084ffff
00041880
00041100
00621021
00442023
3c021000
24423dcc
000420c0
00822021
8c820060
03e00008
00000000
3084ffff
00041880
00041100
00621021
00442023
3c021000
000420c0
24423dcc
00822021
03e00008
ac850064
03e00008
00000000
3c091000
8d223d18
27bdffe8
afbf0014
14400015
3c032000
8c620060
3c021000
8c423d1c
8c630060
3c032000
8c6a0060
8c680060
00402021
3c031000
01002821
24070019
00003021
ad2a3d18
ac623d20
0c000405
ac683d24
8fbf0014
00000000
03e00008
27bd0018
8c630060
00000000
0062102b
10400007
00000000
3c031000
8c623d1c
00000000
24420001
08000169
ac623d1c
3c021000
8c423d1c
0800016a
3c032000
3c022000
8c430010
27bdffe8
3863000c
afbf0014
ac430010
0c00015f
00000000
3c021000
8c453d14
3c041000
8fbf0014
00652823
ac833d10
3c041008
ac85f0d0
ac433d14
03e00008
27bd0018
3c02e000
ac400000
03e00008
00000000
3c031000
24633d28
00001021
24080001
24070020
00483004
00c43024
10c00002
24420001
ac650000
1447fffa
24630004
03e00008
00000000
3c021008
2442f0bc
8c430010
27bdffe0
afb10014
24630001
3c111000
afb20018
afb00010
afbf001c
00808021
00a09021
ac430010
26313d28
32020001
10400007
00108042
8e220000
00000000
10400003
02402021
0040f809
00000000
1600fff6
26310004
8fbf001c
8fb20018
8fb10014
8fb00010
03e00008
27bd0020
27bdffe8
afb00010
00808021
afbf0014
0c00007b
00002021
3c032000
8c650010
8fbf0014
02058025
ac700010
00402021
8fb00010
0800007b
27bd0018
24020010
10a20023
00803021
04800034
00000000
10800019
00004021
3c021000
3c071000
2403001e
24423da8
080001ea
24e734e0
1060000b
00000000
00c5001a
00432021
2463ffff
00003010
00e63021
90c90000
00005012
00003012
1540fff5
a0890000
11000008
00432021
2405002d
a0850000
03e00008
00431021
3c021000
2403001e
24423da8
24630001
03e00008
00431021
10800018
3c071000
3c021000
2403001e
24423da8
08000209
24e734e0
1060000e
00000000
30c4000f
00e42021
90850000
00063102
00432021
a0850000
14c0fff7
2463ffff
080001fe
24630001
00043023
080001e2
24080001
24030001
03e00008
00431021
3c021000
2403001f
080001f8
24423da8
27bdffc0
27a20044
afb60034
afb50030
afb4002c
afb30028
afb20024
afb10020
afb0001c
afbf003c
afb70038
afa50044
afa60048
afa7004c
00808021
afa20010
0040a821
24110025
24120064
3c141000
24130073
3c161000
82040000
00000000
10800009
00000000
10910013
00000000
0c0000ad
26100001
82040000
00000000
1480fff9
00000000
8fbf003c
00001021
8fb70038
8fb60034
8fb50030
8fb4002c
8fb30028
8fb20024
8fb10020
8fb0001c
03e00008
27bd0040
82020001
00000000
10520030
28430065
10600009
00000000
10510043
24030063
1043003b
00000000
0c0000ad
2404003f
08000233
26100002
10530014
24030078
1443fff9
00000000
8ea40000
00000000
14800039
26b50004
269734f4
82e40000
00000000
1080fff2
00000000
0c0000ad
26f70001
82e40000
00000000
1480fffb
00000000
08000233
26100002
8eb70000
00000000
12e00030
26b50004
82e40000
00000000
1080ffe2
26f70001
0c0000ad
26f70001
82e4ffff
00000000
1480fffb
00000000
08000233
26100002
8ea40000
00000000
1480001c
26b50004
269734f4
82e40000
00000000
1080ffd1
00000000
0c0000ad
26f70001
82e40000
00000000
1480fffb
00000000
08000233
26100002
82a40003
26100002
0c0000ad
26b50004
08000233
00000000
0c0000ad
24040025
08000233
26100002
0c0001db
24050010
08000262
0040b821
0c0001db
2405000a
08000283
0040b821
08000272
26d734f8
10800009
00000000
8c820000
00000000
a0450000
8c820000
00000000
24420001
03e00008
ac820000
14a00003
00000000
03e00008
00000000
080000ad
00a02021
27bdffb8
afbe0040
afb10024
afb00020
afbf0044
afb7003c
afb60038
afb50034
afb40030
afb3002c
afb20028
00a08821
80a50000
00808021
10a00035
00c0f021
3c171000
26f734e0
24020025
14a2002a
24030030
82220001
00000000
104300a0
24140030
26310001
24140020
2443ffd0
306300ff
2c63000a
10600094
2403006c
00009821
00131840
001398c0
00739821
26310001
02629821
82220000
00000000
2443ffd0
306300ff
2c63000a
1460fff5
2673ffd0
2403006c
10430086
00000000
2442ffa8
304200ff
2c430021
1060000c
3c031000
00021080
24633564
00621021
8c420000
00000000
00400008
00000000
83c50003
27de0004
0c0002a3
02002021
82250001
00000000
14a0ffcf
26310001
02002021
0c0002a3
00002821
8fbf0044
00001021
8fbe0040
8fb7003c
8fb60038
8fb50034
8fb40030
8fb3002c
8fb20028
8fb10024
8fb00020
03e00008
27bd0048
2403000a
8fd20000
00000000
1640004b
27d50004
24020030
a3a20010
02a0f021
00009021
24020001
27b60010
02629823
1a600008
2673ffff
2415ffff
2673ffff
02002021
0c0002a3
02802821
1675fffc
2673ffff
24130001
02d29021
02769823
82450000
02002021
0c0002a3
2652ffff
02721021
1c40fffa
00000000
82250001
00000000
14a0ff9c
26310001
080002f8
02002021
8fd20000
00000000
12400047
27de0004
82450000
00000000
10a0000d
00000000
1260ffbe
26520001
0800033a
00000000
1260ffba
26520001
0c0002a3
02002021
82450000
00000000
14a0fff9
2673ffff
1a60ffb2
2673ffff
2412ffff
2673ffff
02002021
0c0002a3
02802821
1672fffc
2673ffff
26730001
82250001
00000000
14a0ff78
26310001
080002f8
02002021
8fd20000
00000000
0640001b
27d50004
1240ffb7
2403000a
02a0f021
00001021
27b60010
0243001b
02c22821
24420001
00002010
02e42021
90840000
00009012
1640fff8
a0a40000
08000312
2452ffff
08000308
24030010
1443ff7c
2413ffff
82220001
080002e3
26310001
82220002
080002ce
26310002
02002021
0c0002a3
2405002d
00129023
2673ffff
02a0f021
08000357
2403000a
3c021000
08000330
24523500
18c0000f
00801021
80a40000
24430001
10800018
a0440000
08000386
00002021
80e70000
00000000
a0670000
10e00006
24630001
24840001
1486fff9
00a43821
03e00008
00000000
24840001
0086282a
10a0fffb
00663021
00c42023
a0600000
24630001
1464fffd
00000000
03e00008
00000000
0800038c
24040001
10c00007
00801021
30a500ff
00801821
24c6ffff
a0650000
14c0fffd
24630001
03e00008
00000000
27bdffe0
27a20024
00801821
afa50024
afa60028
00002021
00602821
00403021
afbf001c
afa7002c
0c0002b3
afa20010
8fbf001c
00000000
03e00008
27bd0020
27bdffe0
27a20028
afa40020
afa60028
27a40020
00403021
afbf001c
afa7002c
0c0002b3
afa20010
8fbf001c
00000000
03e00008
27bd0020
27bdfff8
00c71025
afb10004
afb00000
8fb80018
10400035
24090001
04c0000e
00004021
00075fc2
00063040
000957c2
00081840
00091040
01663025
01434025
00073840
04c1fff7
00404821
00481025
1040002e
00001821
00001821
00001021
0086782b
00087042
00086fc0
00095042
000667c0
15e0000f
00075842
00a77823
00694821
00484021
0123882b
00afc82b
00868023
14c40003
00a7382b
14e00005
00000000
02281021
02192023
01e02821
01201821
01aa4825
01c95025
01c04021
00063042
1540ffe6
018b3825
13000003
00000000
af040000
af050004
8fb10004
8fb00000
03e00008
27bd0008
24030001
0062001b
8fb10004
00001021
8fb00000
00001812
03e00008
27bd0008
080003f3
00001021
27bdffe0
afbf001c
0c0003c0
afa00010
8fbf001c
00000000
03e00008
27bd0020
3c021008
8c45f198
3c041000
27bdffe8
afbf0014
0c00021d
248435e8
3c041000
0c00021d
24843608
0c000a05
00002021
0c00015d
00000000
0c00015d
00000000
08000419
00000000
27bdffd0
afbf002c
afb40028
afb30024
afb20020
afb1001c
0c0000fb
afb00018
0c000a05
24040001
0c00007b
00002021
3c041000
0c00021d
24843624
3c021000
3c03baad
8c443d08
3463d00d
1083000c
3c041000
0c00099b
24040001
8fbf002c
00001021
8fb40028
8fb30024
8fb20020
8fb1001c
8fb00018
03e00008
27bd0030
24843638
0c00021d
ac403d08
3c061000
3c071000
3c051000
3c041000
3c021000
24c636a4
24e736ac
24a53698
24843678
244236b8
0c00021d
afa20010
3c041000
0c00021d
248436c4
3c041000
0c00021d
248436fc
3c041000
3c051000
2484373c
0c00021d
24a53750
3c041000
2484375c
0c00021d
240561a8
3c041000
24843774
0c00021d
240528f0
3c041000
3c050007
2484378c
0c00021d
34a5a120
3c041000
248437a8
2405001e
0c00021d
3c141000
0c000109
00008821
26943dcc
3c101008
2413ffff
2412001e
00111880
00111100
00621021
00511023
000210c0
02821021
24440002
00002821
24060014
a4530000
0c000398
ae02f18c
8e02f18c
26310001
a0400016
a0400017
a0400018
ac40001c
ac400020
ac400024
ac400028
a440002c
a440002e
a4400030
a4400032
a4400034
ac400088
ac40008c
ac400090
1632ffe2
ac400094
3c051008
a4a0f194
3c051008
a4a0f188
3c051008
a4a0f1a4
3c051000
3c031008
24a52ea8
2462f0bc
ac65f0bc
3c031000
24632d50
ac430004
2404001e
ac400008
ac40000c
ac400010
0c000a09
ac400014
3c031008
10400030
ac62f19c
0c000a09
2404001e
3c031008
1040002f
ac62f1a8
0c000a09
2404001e
3c031008
10400022
ac62f1a0
0c000115
00000000
0c000118
00000000
0c000188
00000000
0c00012d
00000000
3c021000
24423cac
3c041000
00003021
00003821
24841034
00002821
afa20010
24020400
0c000c44
afa20014
0c000130
00000000
0c000138
00000000
0c000977
00000000
8e04f18c
24050001
0c00009d
24840038
0c00099b
00002021
08000436
00000000
0c00099b
24040004
080004b1
00000000
0c00099b
24040004
080004a7
00000000
0c00099b
24040004
080004ac
00000000
27bdffe0
afb00014
3c101000
afb10018
00808821
afbf001c
0c000562
26043dc8
8e25fffc
3c021008
8c43f198
2404fffe
00a42024
3c051008
8ca6f1b0
24630008
ae24fffc
00641821
3c051008
26043dc8
8fbf001c
8fb10018
8fb00014
27bd0020
aca6f1ac
0800057b
ac43f198
27bdffe0
afb20018
3c121000
afb10014
2402fffc
24910003
26443dc8
afb00010
afbf001c
0c000562
02228824
3c071008
8ce3f1ac
2406fff8
00608021
26250008
8c640000
00000000
1080003a
00000000
8c620004
00000000
30420001
1040000a
00000000
08000516
00801821
8c630000
00000000
8c620004
00000000
30420001
1440fffa
00608021
1440000b
00d01023
8c640000
00000000
10800007
00d01023
8c820004
00000000
30420001
1040fff8
00801821
00d01023
00621021
0045202b
ae020004
1480ffde
ae030000
3c021008
8c48f198
36240001
2409fff8
2406fffe
01314823
00863024
02052821
01263021
2508fff8
acf0f1ac
ae040004
ae050000
01118823
aca30000
aca60004
26443dc8
0c00057b
ac51f198
26020008
8fbf001c
8fb20018
8fb10014
8fb00010
03e00008
27bd0020
0c00057b
26443dc8
08000540
00001021
00801021
2403fffc
24a40003
00831824
00452821
24a4fff8
2463fff0
ac440000
ac430004
aca0fff8
aca0fffc
3c051008
8c430004
aca2f1b0
3c041000
3c051008
aca2f1ac
24843dc8
3c021008
0800055f
ac43f198
ac800000
03e00008
00000000
27bdffd8
afb10020
afb0001c
afbf0024
00808821
24100001
0c00007b
00002021
afa20014
8e220000
00000000
afa20010
ae300000
8fa40014
0c00007b
00000000
8fa20010
00000000
1050fff3
00000000
8fbf0024
8fb10020
8fb0001c
03e00008
27bd0028
ac800000
03e00008
00000000
3c022000
8c420090
03e00008
3042ffff
3c022000
8c420070
03e00008
3042ffff
3084ffff
3c022000
ac440080
03e00008
00000000
27bdffc0
00002021
afbf003c
afb5002c
afbe0038
afb70034
afb60030
afb40028
afb30024
afb20020
afb1001c
0c00007b
afb00018
0c000582
00000000
0c000582
00000000
0c000582
0040a821
2403003e
1043000d
00000000
8fbf003c
8fbe0038
8fb70034
8fb60030
8fb5002c
8fb40028
8fb30024
8fb20020
8fb1001c
8fb00018
03e00008
27bd0040
0c000582
00000000
0c000582
00409821
0c000582
00408021
0c000582
00409021
0c000582
0040f021
0c000582
0040b821
0040b021
3c021008
2442f0d4
00001821
080005c2
2405001e
24630001
10650046
3c041000
94440000
00000000
1492fffa
24420002
10600040
3c041000
00031080
afa20010
8fa40010
00031100
00821021
00431823
3c021000
000318c0
24423dcc
00621021
8c420088
00000000
10400031
3c141008
8e84f1b4
0c000a40
00000000
10400039
00408821
a4550000
2402003e
a6330004
a6300006
a6220002
a6320008
a63e000a
a637000c
a636000e
00008021
24130070
0c000582
00000000
02301821
26100002
1613fffb
a4620010
3c021008
8fa30010
2442f110
00431021
8c440000
0c000a28
02202821
1040ffad
3c041000
02402821
0c00021d
248437bc
8e84f1b4
02202821
8fbf003c
8fbe0038
8fb70034
8fb60030
8fb5002c
8fb40028
8fb30024
8fb20020
8fb1001c
8fb00018
08000a28
27bd0040
3c041000
02003821
24843824
02402821
0c00021d
02603021
24100038
0c000582
2610ffff
1600fffd
00000000
080005a1
00000000
3c041000
0c00021d
248437f8
24100038
0c000582
2610ffff
1600fffd
00000000
080005a1
00000000
3c041000
27bdffd8
24843870
24050004
afbf0024
afb10020
0c00021d
afb0001c
3c041000
2484388c
0c00021d
24050040
0c000a09
24040040
3c111008
1040002d
ae22f1b4
3c021008
2442f0d4
2443003c
a4400000
24420002
1443fffd
00000000
0800063c
24100040
8e24f1b4
0c000a28
00402821
1200000e
00000000
0c0004f9
24040080
1440fff8
2610ffff
24040004
0c00099b
afa20010
8fa20010
8e24f1b4
0c000a28
00402821
1600fff4
00000000
24100040
0c000582
2610ffff
1600fffd
3c051000
24040100
0c00019f
24a5162c
0c0001cc
24040100
3c041000
8fbf0024
8fb10020
8fb0001c
248438b0
0800021d
27bd0028
0c00099b
24040004
0800062f
3c021008
03e00008
24020004
27bdffd8
afb00010
3090ffff
2e02001e
afb10014
afbf0024
afb40020
afb3001c
afb20018
30b1ffff
10400045
30c6ffff
00109080
00101900
02431821
00701823
3c021000
000318c0
24423dcc
00621021
8c420088
00000000
10400039
3c141008
2694f110
02921021
8c420000
00000000
1440002a
3c131008
2673f0d4
02601021
08000684
2665003c
1045000e
00000000
94430000
00000000
1471fffb
24420002
2402ff31
8fbf0024
8fb40020
8fb3001c
8fb20018
8fb10014
8fb00010
03e00008
27bd0028
24c2ffff
3042ffff
2c420040
10400002
24040040
00c02021
0c000a09
02929021
10400018
ae420000
00108040
8fbf0024
02709821
a6710000
00001021
8fb40020
8fb3001c
8fb20018
8fb10014
8fb00010
03e00008
27bd0028
8fbf0024
2402ff32
8fb40020
8fb3001c
8fb20018
8fb10014
8fb00010
03e00008
27bd0028
08000689
2402ff9c
08000689
2402ff98
27bdffb0
afb70044
afb40038
afb30034
afb20030
afb1002c
afb00028
00808821
afbf004c
afbe0048
afb60040
afb5003c
00a08021
00c09021
97b40062
0c000c3e
00e0b821
3c031008
00021080
2463f110
00629821
8e640000
00000000
108000ea
afa20020
0c000a25
24160001
14400006
00000000
8e640000
0c000a25
00000000
1040fffc
00000000
8e640000
0c000a58
00002821
10400005
00002021
9443000e
00000000
1074000e
00000000
0c00007b
00000000
8e640000
0c000a40
0040a821
8e640000
0c000a28
00402821
0c00007b
02a02021
8e640000
080006d2
00000000
9442000c
00000000
1456fff0
00000000
0c00007b
00002021
8e640000
0c000a40
0040a821
00409821
0c00007b
02a02021
96620004
24030070
a6220000
96620006
00000000
a6020000
9662000a
00000000
0043001b
a6e20000
9675000c
00001810
00002012
146000a4
00000000
3084ffff
afa40010
8fa40010
00000000
2c830002
146000a5
3c051008
8fa40010
26a3ffff
00831021
afa3001c
3c031008
afa30014
3c041008
8fa30020
26b50001
3042ffff
2484f110
32b5ffff
0240b021
afa20018
0000f021
00838021
26630010
02c01021
24040038
94650000
2484ffff
00052a02
a0450000
94650000
24630002
a0450001
1480fff8
24420002
0c00007b
00000000
8fa30014
00408821
8c64f1b4
0c000a28
02602821
0c00007b
02202021
24110202
8e040000
0c000a25
00000000
1040fffc
00000000
8e040000
0c000a58
00002821
2631ffff
10400005
00002021
9443000e
00000000
10740021
00000000
0c00007b
00000000
8e040000
0c000a40
00409821
8e040000
0c000a28
00402821
0c00007b
02602021
1620ffe6
00000000
0c00007b
00002021
8e040000
0c000a40
00408821
02202021
0c00007b
00409821
8fa30018
00000000
12a30019
00000000
9663000c
26a20001
10750002
3042ffff
241eff34
26d60070
0800071e
0040a821
9442000c
00000000
1455ffdd
00000000
0c00007b
00002021
8e040000
0c000a40
00408821
02202021
0c00007b
00409821
8fa30018
00000000
16a3ffe9
00000000
8fa30010
8fa5001c
2462fffe
3042ffff
00a32021
24420001
9665000c
00021900
3084ffff
000211c0
00431823
96e20000
10a40002
00000000
241eff34
26640010
02439021
08000791
2465006e
94820000
00000000
00021202
a2420000
94820000
24840002
a2420001
10650006
26520002
96e20000
24630002
0062102a
1440fff3
00000000
0c00007b
00002021
8fa30014
00408021
8c64f1b4
0c000a28
02602821
0c00007b
02002021
8fbf004c
03c01021
8fb70044
8fbe0048
8fb60040
8fb5003c
8fb40038
8fb30034
8fb20030
8fb1002c
8fb00028
03e00008
27bd0050
24840001
3084ffff
afa40010
8fa40010
00000000
2c830002
1060ff5e
3c051008
00001821
0000f021
08000782
afa50014
0800079d
241eff32
27bdff30
97a300e2
3084ffff
afb600c0
afb100ac
afb000a8
30b1ffff
afa30094
afa400a4
afbf00cc
afbe00c8
afb700c4
afb500bc
afb400b8
afb300b4
afb200b0
00c08021
0c000c3e
30f6ffff
3c031008
00022880
2463f110
00a31821
8c630000
8fa400a4
106000c5
24030070
02c3001b
00001810
00002812
146000aa
24030003
30a5ffff
afa50090
8fa50090
0083001b
2ca30002
146000ab
00000000
00021040
afa2009c
8fa5009c
3c021008
2442f0d4
00001810
00452821
afa200a0
00002012
00031100
0200a821
24140001
27b20090
27b70010
afa50098
0082f025
8fa30098
2404003e
94620000
8fa30094
24050004
a7a20016
a7a3001e
a7be0010
a7a40012
a7a50014
a7b10018
a7b6001a
a7b4001c
27a30020
02a01021
90440000
90450001
00042200
00852025
a4640000
24630002
1643fff9
24420002
0c00057e
00000000
30420001
1040fffc
00000000
0c00007b
00002021
0c00057e
00409821
30420001
1440000a
02602021
0c00007b
00000000
0c00057e
00000000
30420001
1040ffee
00000000
0800080b
00000000
02e01021
94440000
24420002
0c000586
afa200a4
8fa200a4
00000000
1642fff9
00000000
0c00007b
02602021
26940001
8fa50090
3294ffff
1685ffc5
26b50070
2682fffe
3042ffff
24420001
00021900
000211c0
00432823
8fa300a0
8fa4009c
a7be0010
00641021
2403003e
a7a30012
24030004
94420000
a7a30014
8fa30094
a7a20016
a7b10018
a7b6001a
a7b4001c
a7a3001e
02058021
24020008
02e53823
0800084e
24080040
92030000
92060001
00031a00
00661825
24420001
a4830010
24a50002
1048000b
26100002
00b6182a
1460fff5
00e52021
00021040
02e21021
2403dead
a4430000
24420002
1642fffd
00000000
0c00057e
00000000
30420001
1040fffc
00000000
0c00007b
00002021
0c00057e
00408021
30420001
1440000a
02002021
0c00007b
00000000
0c00057e
00000000
30420001
1040ffee
00000000
0800085d
00000000
96e40000
0c000586
26f70002
1657fffc
00000000
0c00007b
02002021
00001021
8fbf00cc
8fbe00c8
8fb700c4
8fb600c0
8fb500bc
8fb400b8
8fb300b4
8fb200b0
8fb100ac
8fb000a8
03e00008
27bd00d0
24a50001
30a5ffff
afa50090
8fa50090
0083001b
2ca30002
1060ff57
00000000
00021040
afa2009c
3c021008
2442f0d4
00001810
afa200a0
00031100
00002012
24140001
00002821
27b20090
27b70010
08000831
0082f025
08000875
2402ff32
27bdffd8
97a2003a
afb20020
afb1001c
afb00018
afbf0024
00809021
00a08821
0c0006b4
afa20010
14400009
00408021
96440000
96250000
3c061000
3402ffff
24c638d0
24070003
0c0007b8
afa20010
8fbf0024
02001021
8fb20020
8fb1001c
8fb00018
03e00008
27bd0028
27bdffc0
97a30052
00e01021
3084ffff
30a5ffff
30e7ffff
afb2002c
afb10028
afbf003c
afb50038
afb40034
afb30030
afb00024
8fb10054
a7a2004c
0c0007b8
afa30010
1040000b
00409021
8fbf003c
02401021
8fb50038
8fb40034
8fb30030
8fb2002c
8fb10028
8fb00024
03e00008
27bd0040
0c000c3e
3414ffff
0c00015f
00408021
00602821
00402021
240703e8
0c000405
00003021
3c021008
00108080
2442f110
00609821
00508021
24150003
8e040000
0c000a25
00000000
1040000a
00002821
8e040000
0c000a58
00000000
10400005
00000000
9443000e
00000000
10740010
00000000
0c00015f
00000000
00402021
00602821
240703e8
0c000405
00003021
00732023
0064182b
14430003
0224202b
1080ffe6
00000000
080008c7
2412ff35
9442000a
00000000
1455ffee
27a50018
27a4001a
27a6001c
27a7004c
0c0006b4
afb40010
080008c7
00000000
27bdf9e0
afbf061c
afb50618
afb40614
afb30610
afb2060c
afb10608
0c000c3e
afb00604
00402021
24051388
0c000660
00003021
14400026
00000000
3c151000
3c141000
27b3001c
27b2001a
27b00020
27b10018
2694374c
26b538d4
02602021
02402821
02003021
02203821
0c000899
afa00010
00021400
00021403
02802021
1440000e
02002821
0c0003a2
00000000
02602021
02402821
02003021
02203821
0c000899
afa00010
00021400
00021403
02802021
1040fff4
02002821
02a02021
0c0003a2
00402821
08000920
02602021
0c00099b
240400ff
08000918
3c151000
27bdf9e8
afbf0614
afb40610
afb3060c
afb20608
afb10604
0c000c3e
afb00600
00402021
240503e8
0c000660
00003021
14400026
00000000
24040032
3c131000
0c0000b1
3c111000
00008021
241405dc
267338ec
241201f4
26313918
0c00065e
00000000
0c000c3e
afa205f8
8fa605f8
00403821
27a40018
02602821
afb00010
0c0003b2
afb40014
24040003
24051388
27a60018
240705dc
afa00010
0c0008b4
afb20014
00021400
00021403
02202021
00402821
1040ffe9
26100001
0c0003a2
00000000
08000957
00000000
0c00099b
240400ff
0800094f
24040032
27bdffe0
afbf001c
0c00065e
00000000
24030002
1043000f
3c021000
24423938
3c041000
afa20010
24842420
24021000
00002821
00003021
00003821
0c000c44
afa20014
8fbf001c
00000000
03e00008
27bd0020
3c021000
24423930
3c041000
afa20010
24842500
24021000
00002821
00003021
00003821
0c000c44
afa20014
8fbf001c
00000000
03e00008
27bd0020
27bdffe8
afb00010
00808021
afbf0014
0c00007b
00002021
3c021008
9445f188
3c041000
0c00021d
24843944
2e02000f
1440000b
3c021000
3c041000
0c00021d
24843adc
3c041000
0c0003a2
24843aec
0c00019b
00000000
080009b1
00000000
24423b00
00108080
00508021
8e020000
00000000
00400008
00000000
3c041000
0c00021d
248439a0
080009ad
3c041000
3c041000
0c00021d
24843ac8
080009ad
3c041000
3c041000
0c00021d
24843aac
080009ad
3c041000
3c041000
0c00021d
24843a88
080009ad
3c041000
3c041000
0c00021d
24843a68
080009ad
3c041000
3c041000
0c00021d
24843a48
080009ad
3c041000
3c041000
0c00021d
24843a30
080009ad
3c041000
3c041000
0c00021d
248439fc
080009ad
3c041000
3c041000
0c00021d
24843a14
080009ad
3c041000
3c041000
0c00021d
248439e4
080009ad
3c041000
3c041000
0c00021d
248439d4
080009ad
3c041000
3c041000
0c00021d
248439b4
080009ad
3c041000
3c041000
0c00021d
24843990
080009ad
3c041000
3c041000
0c00021d
24843974
080009ad
3c041000
3c041000
0c00021d
24843960
080009ad
3c041000
2c840001
3c021008
03e00008
a444f1a4
27bdffe0
afb10018
00808821
afb00014
afbf001c
0c0004f9
24040014
1040000a
00408021
26240001
ac440000
0c0004f9
00042080
1040000a
ae020010
ae00000c
ae000008
ae000004
8fbf001c
02001021
8fb10018
8fb00014
03e00008
27bd0020
0c0004de
02002021
08000a1b
00008021
8c820004
03e00008
00000000
8c820000
00000000
10400011
00000000
8c86000c
8c870008
24c30001
0062001a
00001810
10e3000c
00063080
8c820010
8c870004
00463021
24e70001
acc50000
00001021
ac83000c
03e00008
ac870004
03e00008
2402ffff
03e00008
2402ffff
8c830000
00000000
10600011
00000000
8c820008
8c85000c
00000000
1045000e
24450001
00a3001a
8c860010
8c850004
00021080
00c21021
24a5ffff
8c420000
ac850004
00001810
03e00008
ac830008
03e00008
00001021
03e00008
00001021
8c820000
00000000
10400013
00000000
8c830004
00000000
00a3182a
1060000e
00000000
8c830008
8c86000c
00000000
1066000b
00a32821
00a2001a
8c830010
00001010
00021080
00621021
8c420000
03e00008
00000000
03e00008
00001021
03e00008
00001021
8c830000
00000000
10600022
00000000
8c820004
00000000
00a2382a
10e0001d
00000000
00c2102a
1040001a
00000000
8c820008
8c87000c
00000000
10470017
00c23021
00c3001a
00a22821
8c870010
00001021
00003010
00063080
00000000
00a3001a
00e62821
8ca80000
00001810
00031880
00e33821
8ce30000
ace80000
8c840010
00000000
00863021
03e00008
acc30000
03e00008
2402ffff
03e00008
2402ffff
27bdffe0
afb00014
3c101008
8e04f19c
afb10018
afbf001c
0c000a40
3c111008
10400010
ae22f18c
8e04f19c
0c000a28
00402821
14400006
24040009
8fbf001c
8fb10018
8fb00014
03e00008
27bd0020
8fbf001c
8fb10018
8fb00014
0800099b
27bd0020
0c00099b
24040005
8e22f18c
08000aa5
00000000
27bdffc8
afbf0034
afb60030
afb5002c
afb40028
afb30024
afb20020
afb1001c
0c000188
afb00018
3c021008
9442f1a4
00000000
1440000b
3c141008
8fbf0034
8fb60030
8fb5002c
8fb40028
8fb30024
8fb20020
8fb1001c
8fb00018
03e00008
27bd0038
9683f188
3c131008
00032080
00031100
00821021
00431823
3c021000
000318c0
24423dcc
00431021
24440038
0c00008f
ae62f18c
1440ffe8
24030002
8e62f18c
00000000
90440016
00000000
1083005a
24030001
8c42008c
00000000
8c430000
3c02b00b
3442b00b
10620004
3c021008
0c00099b
24040002
3c021008
9442f194
00000000
10400042
24040003
3c111008
8e24f1a8
0c000a25
00000000
18400024
00409021
00008021
3c161008
08000b07
3c151008
8ea4f1a0
0c000a28
00402821
14400048
00000000
26100001
12120018
00000000
8e24f1a8
0c000a40
00000000
10400044
24040007
8c43001c
00000000
2463ffff
14600032
ac43001c
9443002c
00000000
1460ffeb
00000000
8ec4f19c
0c000a28
00402821
1040ffeb
24040009
0c00099b
26100001
1612ffea
00000000
3c101008
8e02f0bc
00000000
0040f809
2610f0bc
3042ffff
14400007
a682f188
8e020004
00000000
0040f809
00000000
3c031008
a462f188
8e02000c
8e63f18c
24420001
24050002
24640038
a0650016
ae02000c
0c00009d
24050001
240400ff
8fbf0034
8fb60030
8fb5002c
8fb40028
8fb30024
8fb20020
8fb1001c
8fb00018
0800099b
27bd0038
08000ae7
a0430016
8e24f1a8
0c000a28
00402821
1040ffbe
00000000
0c00099b
2404000a
08000b05
26100001
0c00099b
2404000b
08000b05
26100001
0c00099b
afa20010
8fa20010
08000b0c
00000000
3c021008
8c44f19c
27bdffd0
afb2001c
afbf002c
afb50028
afb40024
afb30020
afb10018
0c000a25
afb00014
10400043
00409021
0c000a9b
00000000
1a400043
241400ff
00008021
00008821
3c131008
24150003
0c000a9b
26310001
8e62f18c
00000000
90430019
00000000
10600005
00000000
90430016
00000000
1475002c
00000000
90430018
00000000
0074202b
10800007
00000000
90440016
00000000
10950003
00000000
00408021
0060a021
1632ffe8
00000000
00008821
0c000a9b
26310001
8e62f18c
00000000
12020006
00000000
90440018
92030018
00000000
00831823
a0430018
1632fff4
00000000
92020017
ae70f18c
a2020018
8e030024
8fbf002c
24630001
96020000
ae030024
8fb50028
8fb40024
8fb30020
8fb2001c
8fb10018
8fb00014
03e00008
27bd0030
a0400019
08000b93
00408021
0c00099b
24040005
0c000a9b
00000000
00008021
08000b90
3c131008
27bdffc8
afb10018
3c111008
8e24f1a0
afb30020
afbf0034
afb70030
afb6002c
afb50028
afb40024
afb2001c
0c000a25
afb00014
10400084
00409821
2456ffff
00009021
0256102a
10400024
0220a821
26540001
0293102a
1040001c
00000000
08000bc7
02808021
26100001
12130017
00000000
8e24f1a0
0c000a58
02402821
8e24f1a0
02002821
0c000a58
0040b821
9442002c
96e3002c
00000000
0043102b
1040fff1
02003021
8ea4f1a0
0c000a72
02402821
1040ffec
2404000c
0c00099b
26100001
1613ffeb
00000000
02809021
0296102a
1440ffdf
26540001
1a600039
3c121008
0000a821
00008021
0240b021
08000c0b
24140003
8e42f18c
00000000
90430016
00000000
10740009
00000000
94430032
00000000
10600005
00000000
16a00003
2463ffff
94550000
a4430032
94430034
00000000
2463ffff
3063ffff
1460000d
a4430034
9444002c
94430032
00000000
10600005
a4440034
8c430028
00000000
24630001
ac430028
9443002e
00000000
a4430032
26100001
1213000f
00000000
8e24f1a0
0c000a40
00000000
10400028
ae42f18c
8e24f1a0
0c000a28
00402821
1040ffd4
00000000
0c00099b
2404000b
08000be8
00000000
16a00010
00151100
3c021000
24423dcc
ae42f18c
00001021
8fbf0034
8fb70030
8fb6002c
8fb50028
8fb40024
8fb30020
8fb2001c
8fb10018
8fb00014
03e00008
27bd0038
00151880
00621821
00751823
3c021000
000318c0
24423dcc
00431021
8c430020
ae42f18c
24630001
ac430020
08000c1f
02a01021
0c00099b
24040006
8ec2f18c
08000c10
00000000
08000c1f
00001021
3c021008
8c42f18c
00000000
94420000
03e00008
00000000
27bdffa0
afb40048
afb20040
30b4ffff
30d2ffff
0292102b
afb60050
afb5004c
afbf005c
afbe0058
afb70054
afb30044
afb1003c
afb00038
0080a821
30f6ffff
afa00028
14400096
2402ff9b
02d2102b
14400093
2402ff9b
0c00007b
00002021
afa2002c
8fa20028
3c101000
00022080
00021900
00831821
00621023
000210c0
26103dcc
02021021
8c420088
00000000
14400013
00000000
08000c81
00000000
8fa20028
00000000
24420001
afa20028
8fa20028
00000000
00022080
00021900
00831821
00621023
000210c0
02021021
8c420088
00000000
10400006
00000000
8fa20028
00000000
2c42001e
1440ffec
00000000
8fa30028
2402001e
1062008d
3c041000
8fa20028
3c171008
00022080
00021900
00831821
00621023
96e7f194
8fa30028
000210c0
02021021
8fa50070
3c111008
24e70001
24060014
a4430000
24440002
a6e7f194
0c000379
ae22f18c
8fb30074
8e3ef18c
26730003
00139882
00139880
24020064
02602021
a3c00016
a3c20017
a3c20018
afc0001c
a7d4002c
a7d2002e
a7d60030
a7d20032
a7d60034
afc00020
afc00024
afc00028
afd50088
0c0004f9
afd30090
8e23f18c
afc2008c
8c65008c
94640000
24a5fffc
0c00013b
00b32821
8e22f18c
00000000
94440000
8c450088
0c000152
00000000
8e3ef18c
00000000
8fc2008c
00000000
10400042
3c03b00b
97c60000
97c7002c
3463b00b
00c02021
ac430000
97d6002e
97d50030
8fd20088
afa60034
0c000146
afa70030
3c041000
8fa60034
8fa70030
24843b64
27c50002
afb60010
afb50014
afb20018
afa2001c
0c00021d
afb30020
16800020
3c021008
3c021008
8c44f19c
8e25f18c
0c000a28
00000000
1440002e
00000000
3c021008
9442f188
8fa4002c
00022880
00021900
00a31821
00621023
000210c0
02028021
0c00007b
ae30f18c
8fa20028
8fbf005c
8fbe0058
8fb70054
8fb60050
8fb5004c
8fb40048
8fb30044
8fb20040
8fb1003c
8fb00038
03e00008
27bd0060
8c44f1a0
8e25f18c
0c000a28
00000000
1040ffe3
00000000
0c00099b
2404000b
08000ce1
3c021008
96e2f194
3c041000
2442ffff
afc00088
24843bac
0c00021d
a6e2f194
2402ff98
afa20028
08000ce1
3c021008
0c00099b
24040009
08000ce1
3c021008
24843b3c
0c00021d
2405001e
8fa4002c
0c00007b
00000000
08000cec
2402ff99
0a48414c
3a205f76
6d5f696e
69742829
00000000
0a48414c
3a205f73
63686564
5f696e69
74282900
0a48414c
3a205f74
696d6572
5f696e69
74282900
0a48414c
3a205f69
72715f69
6e697428
29000000
0a48414c
3a205f64
65766963
655f696e
69742829
00000000
0a48414c
3a205f74
61736b5f
696e6974
28290000
30313233
34353637
38396162
63646566
00000000
30000000
286e756c
6c290000
3c4e554c
4c3e0000
7a797877
76757473
7271706f
6e6d6c6b
6a696867
66656463
62613938
37363534
33323130
31323334
35363738
39616263
64656667
68696a6b
6c6d6e6f
70717273
74757677
78797a00
0a253038
78200000
25303278
20000000
207c0000
10000d90
10000bcc
10000bcc
10000bcc
10000bcc
10000bcc
10000bcc
10000bcc
10000bcc
10000bcc
10000bcc
10000bbc
10000d40
10000bcc
10000bcc
10000bcc
10000bcc
10000bcc
10000bcc
10000bcc
10000bcc
10000bcc
10000bcc
10000bcc
10000bcc
10000bcc
10000bcc
10000cb0
10000bcc
10000c1c
10000bcc
10000bcc
10000d90
0a4b4552
4e454c3a
20667265
65206865
61703a20
25642062
79746573
00000000
0a4b4552
4e454c3a
2048656c
6c666972
654f5320
69732075
700a0000
0a4b4552
4e454c3a
20626f6f
74696e67
2e2e2e00
0a3d3d3d
3d3d3d3d
3d3d3d3d
3d3d3d3d
3d3d3d3d
3d3d3d3d
3d3d3d3d
3d3d3d3d
3d3d3d3d
3d3d3d3d
3d3d3d3d
3d3d3d3d
3d3d3d3d
3d3d3d3d
3d3d3d3d
00000000
0a48656c
6c666972
654f5320
25732028
25732920
5b25732c
2025735d
00000000
76322e31
372e3033
00000000
342e362e
31000000
4f637420
31312032
30313700
32303a31
313a3437
00000000
0a456d62
65646465
64205379
7374656d
73204772
6f757020
2d204753
452c2050
55435253
202d205b
32303037
202d2032
3031375d
00000000
0a3d3d3d
3d3d3d3d
3d3d3d3d
3d3d3d3d
3d3d3d3d
3d3d3d3d
3d3d3d3d
3d3d3d3d
3d3d3d3d
3d3d3d3d
3d3d3d3d
3d3d3d3d
3d3d3d3d
3d3d3d3d
3d3d3d3d
0a000000
0a617263
683a2020
20202020
20202020
25730000
6d697073
2f706c61
736d6100
0a737973
20636c6b
3a202020
20202020
2564206b
487a0000
0a74696d
6520736c
6963653a
20202020
25642075
73000000
0a686561
70207369
7a653a20
20202020
25642062
79746573
00000000
0a6d6178
20746173
6b733a20
20202020
25640a00
0a4b4552
4e454c3a
20746173
6b20286f
6e20706f
72742025
64292071
75657565
2066756c
6c212064
726f7070
696e6720
7061636b
65742e2e
2e000000
0a4b4552
4e454c3a
204e6f43
20717565
75652066
756c6c21
2064726f
7070696e
67207061
636b6574
2e2e2e00
0a4b4552
4e454c3a
206e6f20
7461736b
206f6e20
706f7274
20256420
286f6666
656e6465
723a2063
70752025
6420706f
72742025
6429202d
2064726f
7070696e
67207061
636b6574
2e2e2e00
0a4b4552
4e454c3a
20746869
73206973
20636f72
65202564
00000000
0a4b4552
4e454c3a
204e6f43
20717565
75652069
6e69742c
20256420
7061636b
65747300
0a4b4552
4e454c3a
204e6f43
20647269
76657220
72656769
73746572
65640000
6f6b0000
68665f72
65637661
636b2829
3a206572
726f7220
25640a00
6920616d
20637075
2025642c
20746872
65616420
25643a20
6d736720
25642073
697a653a
2025640a
00000000
68665f73
656e6461
636b2829
3a206572
726f7220
25640a00
73656e64
65720000
72656365
69766572
00000000
0a4b4552
4e454c3a
2070616e
6963205b
7461736b
2025645d
202d2000
65786563
7574696f
6e206162
6f727465
64000000
67656e65
72616c20
70726f74
65637469
6f6e2066
61756c74
00000000
73746163
6b206f76
6572666c
6f770000
73746163
6b206973
20636f72
72757074
65640000
6e6f206d
6f726520
7461736b
73206c65
66742074
6f206469
73706174
63680000
6f757420
6f66206d
656d6f72
79000000
6e6f2074
61736b73
206f6e20
72756e20
71756575
65000000
6e6f2074
61736b73
206f6e20
64656c61
79207175
65756500
6e6f2074
61736b73
206f6e20
7265616c
74696d65
20717565
75650000
7461736b
20696e20
756e6b6e
6f776e20
73746174
65000000
63616e27
7420706c
61636520
7461736b
206f6e20
72756e20
71756575
65000000
63616e27
7420706c
61636520
7461736b
206f6e20
64656c61
79207175
65756500
63616e27
7420706c
61636520
7461736b
206f6e20
7265616c
2074696d
65207175
65756500
63616e27
74207377
61702074
61736b73
206f6e20
71756575
65000000
696e7361
6e652073
656d6170
686f7265
00000000
756e6b6e
6f776e20
6572726f
72000000
202d3e20
73797374
656d2068
616c7465
642e0a00
10002800
100027ec
100027d8
100027c4
100027b0
1000279c
10002788
10002774
10002760
1000274c
10002738
10002724
10002710
100026fc
100026e8
0a4b4552
4e454c3a
20746173
6b206e6f
74206164
64656420
2d204d41
585f5441
534b533a
20256400
0a4b4552
4e454c3a
205b2573
5d2c2069
643a2025
642c2070
3a25642c
20633a25
642c2064
3a25642c
20616464
723a2025
782c2073
703a2025
782c2073
733a2025
64206279
74657300
0a4b4552
4e454c3a
20746173
6b206e6f
74206164
64656420
286f7574
206f6620
6d656d6f
72792900
0a4b4552
4e454c3a
2063616e
27742062
6c6f636b
20746865
2069646c
65207461
736b0000
0a4b4552
4e454c3a
20746173
6b20646f
65736e27
74206578
69737400
0a4b4552
4e454c3a
2063616e
27742062
6c6f636b
20616e20
616c7265
61647920
626c6f63
6b656420
7461736b
00000000
0a4b4552
4e454c3a
2063616e
27742072
6573756d
65207468
65206964
6c652074
61736b00
0a4b4552
4e454c3a
2063616e
27742072
6573756d
65206120
6e6f6e20
626c6f63
6b656420
7461736b
00000000
0a4b4552
4e454c3a
2063616e
2774206b
696c6c20
74686520
69646c65
20746173
6b000000
0a4b4552
4e454c3a
20746173
6b206469
65642c20
69643a20
25642c20
7461736b
73206c65
66743a20
25640000
0a4b4552
4e454c3a
2063616e
27742064
656c6179
20746865
2069646c
65207461
736b0000
baadd00d
00000000
